thread0 11.000167 8.000167
thread1 17.000204 14.000204
thread2 21.000231 17.000231
thread3 27.000269 22.000269
thread4 35.000301 30.000301
thread5 42.000333 36.000333
thread6 44.000365 36.000365
thread7 51.000395 40.000395
thread8 60.000422 47.000422
thread9 62.000454 46.000454
thread10 63.000483 43.000483
thread11 69.000515 46.000515
thread12 77.000543 51.000543
thread13 84.000576 56.000576
thread14 87.000598 58.000598
thread15 93.000630 62.000630
thread16 97.000662 66.000662
thread17 99.000694 67.000694
thread18 100.000722 67.000722
thread19 105.000757 72.000757
thread20 106.000790 73.000790
thread21 109.000822 74.000822
thread22 113.000851 77.000851
thread23 114.000881 76.000881
thread24 115.000909 75.000909
thread25 118.000939 76.000939
thread26 124.000968 79.000968
thread27 131.001001 83.001001
thread28 135.001031 84.001031
thread29 144.001059 92.001059
thread30 151.001086 97.001086
thread31 153.001116 96.001116
thread32 154.001144 96.001144
thread33 155.001175 93.001175
thread34 157.001202 91.001202
thread35 163.001231 96.001231
thread36 164.001258 95.001258
thread37 172.001286 102.001286
thread38 174.001321 103.001321
thread39 176.001354 101.001354
thread40 183.001384 108.001384
thread41 190.001413 113.001413
thread42 193.001445 115.001445
thread43 197.001476 117.001476
thread44 201.001504 119.001504
thread45 206.001533 124.001533
thread46 209.001558 123.001558
thread47 212.001584 125.001584
thread48 215.001614 125.001614
thread49 223.001642 130.001642
50