p4 9.800190 5.800190
p2 18.000248 17.000248
p9 48.200387 32.200387
p1 49.800419 48.800419
p8 59.300475 44.300475
p3 66.000526 62.000526
p0 66.700566 65.700566
p7 75.300626 65.300626
p6 78.400663 71.400663
p5 85.000690 80.000690
777