thread0 11.000164 8.000164
thread1 17.000200 14.000200
thread2 21.000231 17.000231
thread3 27.000264 22.000264
thread4 35.000294 30.000294
thread5 42.000322 36.000322
thread6 44.000354 36.000354
thread7 51.000384 40.000384
thread8 60.000417 47.000417
thread9 62.000447 46.000447
thread10 63.000477 43.000477
thread11 69.000506 46.000506
thread12 77.000537 51.000537
thread13 84.000565 56.000565
thread14 87.000592 58.000592
thread15 93.000623 62.000623
thread16 97.000656 66.000656
thread17 99.000684 67.000684
thread18 100.000715 67.000715
thread19 105.000742 72.000742
thread20 106.000776 73.000776
thread21 109.000811 74.000811
thread22 113.000843 77.000843
thread23 114.000870 76.000870
thread24 115.000901 75.000901
thread25 118.000934 76.000934
thread26 124.000959 79.000959
thread27 131.000986 83.000986
thread28 135.001013 84.001013
thread29 144.001044 92.001044
thread30 151.001073 97.001073
thread31 153.001103 96.001103
thread32 154.001131 96.001131
thread33 155.001161 93.001161
thread34 157.001189 91.001189
thread35 163.001219 96.001219
thread36 164.001248 95.001248
thread37 172.001278 102.001278
thread38 174.001308 103.001308
thread39 176.001337 101.001337
thread40 183.001370 108.001370
thread41 190.001401 113.001401
thread42 193.001432 115.001432
thread43 197.001461 117.001461
thread44 201.001490 119.001490
thread45 206.001523 124.001523
thread46 209.001550 123.001550
thread47 212.001581 125.001581
thread48 215.001607 125.001607
thread49 223.001637 130.001637
50