thread0 11.000178 8.000178
thread1 17.000212 14.000212
thread2 21.000240 17.000240
thread3 27.000267 22.000267
thread4 35.000297 30.000297
thread5 42.000325 36.000325
thread6 44.000358 36.000358
thread7 51.000385 40.000385
thread8 60.000413 47.000413
thread9 62.000443 46.000443
thread10 63.000473 43.000473
thread11 69.000506 46.000506
thread12 77.000534 51.000534
thread13 84.000565 56.000565
thread14 87.000594 58.000594
thread15 93.000623 62.000623
thread16 97.000656 66.000656
thread17 99.000687 67.000687
thread18 100.000715 67.000715
thread19 105.000742 72.000742
thread20 106.000772 73.000772
thread21 109.000799 74.000799
thread22 113.000827 77.000827
thread23 114.000853 76.000853
thread24 115.000880 75.000880
thread25 118.000908 76.000908
thread26 124.000939 79.000939
thread27 131.000968 83.000968
thread28 135.000997 84.000997
thread29 144.001025 92.001025
thread30 151.001051 97.001051
thread31 153.001085 96.001085
thread32 154.001120 96.001120
thread33 155.001147 93.001147
thread34 157.001179 91.001179
thread35 163.001211 96.001211
thread36 164.001243 95.001243
thread37 172.001273 102.001273
thread38 174.001300 103.001300
thread39 176.001328 101.001328
thread40 183.001356 108.001356
thread41 190.001379 113.001379
thread42 193.001409 115.001409
thread43 197.001436 117.001436
thread44 201.001463 119.001463
thread45 206.001499 124.001499
thread46 209.001533 123.001533
thread47 212.001561 125.001561
thread48 215.001589 125.001589
thread49 223.001618 130.001618
50