thread6 27.000394 19.000394
thread10 31.300454 11.300454
thread9 45.900559 29.900559
thread2 47.800597 43.800597
thread18 54.100658 21.100658
thread20 54.300683 21.300683
thread23 62.400745 24.400745
thread24 62.500771 22.500771
thread17 87.800924 55.800924
thread32 88.900956 30.900956
thread33 92.901000 30.901000
thread1 99.101051 96.101051
thread36 105.901118 36.901118
thread14 118.501221 89.501221
thread3 133.601298 128.601298
thread21 134.701327 99.701327
thread31 135.401358 78.401358
thread25 151.901450 109.901450
thread34 152.401493 86.401493
thread58 160.701566 48.701566
thread59 160.801600 48.801600
thread38 164.801644 93.801644
thread39 171.201707 96.201707
thread66 180.501777 53.501777
thread16 184.201821 153.201821
thread70 195.002148 58.002148
thread22 206.402213 170.402213
thread5 213.002270 207.002270
thread0 220.102308 217.102308
thread55 223.102347 122.102347
thread42 242.902424 164.902424
thread93 247.502468 65.502468
thread28 249.202502 198.202502
thread46 256.902552 170.902552
thread7 261.802593 250.802593
thread19 262.402619 229.402619
thread47 263.602650 176.602650
thread48 263.702673 173.702673
thread4 268.302717 263.302717
thread53 276.502771 179.502771
thread11 280.702819 257.702819
thread60 300.602900 186.602900
thread43 311.302967 231.302967
thread44 311.402994 229.402994
thread15 316.203048 285.203048
thread68 324.003096 190.003096
thread71 324.203124 185.203124
thread97 326.603160 131.603160
thread50 328.203193 235.203193
thread74 334.803249 186.803249
thread75 334.903278 186.903278
thread79 345.103335 185.103335
thread26 347.303372 302.303372
thread88 355.503427 183.503427
thread13 356.703459 328.703459
thread45 362.003506 280.003506
thread65 363.103544 239.103544
thread94 365.103576 180.103576
thread99 369.703616 173.703616
thread72 376.003662 233.003662
thread8 382.003709 369.003709
thread78 384.403746 228.403746
thread35 386.403778 319.403778
thread56 387.203702 282.203702
thread80 388.303731 226.303731
thread12 389.803762 363.803762
thread85 392.303818 226.303818
thread86 395.703859 225.703859
thread90 396.003901 222.003901
thread27 396.603941 348.603941
thread30 402.803992 348.803992
thread51 412.004060 316.004060
thread54 415.004098 314.004098
thread57 420.504146 311.504146
thread81 421.504183 256.504183
thread82 421.604210 256.604210
thread40 422.804241 347.804241
thread61 423.204266 306.204266
thread41 425.204299 348.204299
thread96 431.204345 239.204345
thread52 435.704393 338.704393
thread37 441.304447 371.304447
thread87 444.304483 274.304483
thread29 446.604522 394.604522
thread49 451.504569 358.504569
thread77 455.304608 301.304608
thread83 458.204643 293.204643
thread84 458.304671 292.304671
thread89 459.604705 285.604705
thread62 460.104735 339.104735
thread64 460.304761 339.304761
thread91 460.804795 282.804795
thread67 462.104825 331.104825
thread69 462.904858 328.904858
thread76 464.904904 312.904904
thread63 466.804942 345.804942
thread95 467.504969 279.504969
thread98 467.905004 272.905004
thread73 468.405035 322.405035
thread92 469.005066 288.005066
4663