thread2 8.000190 4.000190
thread6 10.000223 2.000223
thread1 15.000277 12.000277
thread9 18.000039 2.000039
thread10 21.000037 1.000037
thread3 24.000390 19.000390
thread11 30.000417 7.000417
thread14 33.000439 4.000439
thread18 34.000463 1.000463
thread20 35.000483 2.000483
thread17 37.000510 5.000510
thread23 39.000037 1.000037
thread24 41.000033 1.000033
thread21 42.000619 7.000619
thread25 45.000643 3.000643
thread16 49.000667 18.000667
thread22 53.000693 17.000693
thread28 57.000718 6.000718
thread32 59.000034 1.000034
thread31 60.000783 3.000783
thread33 63.000037 1.000037
thread19 66.000849 33.000849
thread34 68.000875 2.000875
thread36 70.000036 1.000036
thread38 73.000035 2.000035
thread39 77.000040 2.000040
thread15 79.001034 48.001034
thread42 82.001059 4.001059
thread43 86.001088 6.001088
thread46 89.001114 3.001114
thread47 92.001139 5.001139
thread48 95.001162 5.001162
thread44 99.001187 17.001187
thread45 104.001215 22.001215
thread26 110.001240 65.001240
thread35 116.001265 49.001265
thread5 123.001293 117.001293
thread7 130.001319 119.001319
thread13 137.001347 109.001347
thread27 144.001374 96.001374
thread30 151.001400 97.001400
thread40 158.001425 83.001425
thread41 165.001451 88.001451
thread0 173.001481 170.001481
thread4 181.001506 176.001506
thread12 189.001530 163.001530
thread37 197.001558 127.001558
thread49 205.001583 112.001583
thread8 214.001606 201.001606
10