thread0 11.000186 8.000186
thread1 17.000819 14.000819
thread2 21.000861 17.000861
thread3 27.000916 22.000916
thread4 35.001000 30.001000
thread5 42.001032 36.001032
thread6 44.001050 36.001050
thread7 51.001072 40.001072
thread8 60.001098 47.001098
thread9 62.001113 46.001113
thread10 63.001156 43.001156
thread11 69.002058 46.002058
thread12 77.002140 51.002140
thread13 84.002180 56.002180
thread14 87.002222 58.002222
thread15 93.002270 62.002270
thread16 97.002375 66.002375
thread17 99.002410 67.002410
thread18 100.002443 67.002443
thread19 105.002500 72.002500
thread20 106.002518 73.002518
thread21 109.002543 74.002543
thread22 113.002578 77.002578
thread23 114.002594 76.002594
thread24 115.002628 75.002628
thread25 118.002670 76.002670
thread26 124.002704 79.002704
thread27 131.002742 83.002742
thread28 135.002780 84.002780
thread29 144.002805 92.002805
thread30 151.002839 97.002839
thread31 153.002889 96.002889
thread32 154.002903 96.002903
thread33 155.002918 93.002918
thread34 157.002965 91.002965
thread35 163.002994 96.002994
thread36 164.003024 95.003024
thread37 172.003082 102.003082
thread38 174.003108 103.003108
thread39 176.003133 101.003133
thread40 183.003168 108.003168
thread41 190.003214 113.003214
thread42 193.003244 115.003244
thread43 197.003271 117.003271
thread44 201.003287 119.003287
thread45 206.003303 124.003303
thread46 209.003315 123.003315
thread47 212.003334 125.003334
thread48 215.003348 125.003348
thread49 223.003376 130.003376
50