thread0 11.000255 8.000255
thread1 17.001034 14.001034
thread2 21.001102 17.001102
thread3 27.001150 22.001150
thread4 35.001197 30.001197
thread5 42.001239 36.001239
thread6 44.001281 36.001281
thread7 51.001329 40.001329
thread8 60.001372 47.001372
thread9 62.001401 46.001401
thread10 63.001435 43.001435
thread11 69.001474 46.001474
thread12 77.001515 51.001515
thread13 84.001560 56.001560
thread14 87.001584 58.001584
thread15 93.001623 62.001623
thread16 97.001670 66.001670
thread17 99.001721 67.001721
thread18 100.001755 67.001755
thread19 105.001811 72.001811
thread20 106.001839 73.001839
thread21 109.001887 74.001887
thread22 113.001935 77.001935
thread23 114.001963 76.001963
thread24 115.002013 75.002013
thread25 118.002069 76.002069
thread26 124.002126 79.002126
thread27 131.002178 83.002178
thread28 135.002238 84.002238
thread29 144.002283 92.002283
thread30 151.002315 97.002315
thread31 153.002370 96.002370
thread32 154.002391 96.002391
thread33 155.002464 93.002464
thread34 157.002521 91.002521
thread35 163.002563 96.002563
thread36 164.002599 95.002599
thread37 172.002649 102.002649
thread38 174.002699 103.002699
thread39 176.002732 101.002732
thread40 183.002784 108.002784
thread41 190.002832 113.002832
thread42 193.002882 115.002882
thread43 197.002937 117.002937
thread44 201.002987 119.002987
thread45 206.003042 124.003042
thread46 209.003092 123.003092
thread47 212.003123 125.003123
thread48 215.003186 125.003186
thread49 223.003232 130.003232
50