thread0 11.000280 8.000280
thread1 17.001009 14.001009
thread2 21.001044 17.001044
thread3 27.001074 22.001074
thread4 35.001130 30.001130
thread5 42.001178 36.001178
thread6 44.001214 36.001214
thread7 51.001258 40.001258
thread8 60.001311 47.001311
thread9 62.001360 46.001360
thread10 63.001374 43.001374
thread11 69.001408 46.001408
thread12 77.001467 51.001467
thread13 84.001565 56.001565
thread14 87.001609 58.001609
thread15 93.001666 62.001666
thread16 97.001707 66.001707
thread17 99.001745 67.001745
thread18 100.001775 67.001775
thread19 105.001836 72.001836
thread20 106.001872 73.001872
thread21 109.001906 74.001906
thread22 113.001958 77.001958
thread23 114.001994 76.001994
thread24 115.002028 75.002028
thread25 118.002062 76.002062
thread26 124.002091 79.002091
thread27 131.002187 83.002187
thread28 135.002240 84.002240
thread29 144.002296 92.002296
thread30 151.007733 97.007733
thread31 153.007795 96.007795
thread32 154.007841 96.007841
thread33 155.007874 93.007874
thread34 157.007956 91.007956
thread35 163.008006 96.008006
thread36 164.008059 95.008059
thread37 172.008116 102.008116
thread38 174.008147 103.008147
thread39 176.008188 101.008188
thread40 183.008237 108.008237
thread41 190.008368 113.008368
thread42 193.008407 115.008407
thread43 197.008450 117.008450
thread44 201.008503 119.008503
thread45 206.008531 124.008531
thread46 209.008572 123.008572
thread47 212.008610 125.008610
thread48 215.008640 125.008640
thread49 223.008677 130.008677
thread50 227.008721 134.008721
thread51 233.008767 137.008767
thread52 240.008836 143.008836
thread53 243.008874 146.008874
thread54 249.008924 148.008924
thread55 251.008965 150.008965
thread56 256.009013 151.009013
thread57 262.009055 153.009055
thread58 263.009099 151.009099
thread59 264.009120 152.009120
thread60 267.009170 153.009170
thread61 273.009230 156.009230
thread62 281.009279 160.009279
thread63 290.009307 169.009307
thread64 298.009346 177.009346
thread65 302.009371 178.009371
thread66 303.009407 176.009407
thread67 311.009467 180.009467
thread68 314.009498 180.009498
thread69 322.009529 188.009529
thread70 323.009543 186.009543
thread71 326.009584 187.009584
thread72 330.009607 187.009607
thread73 339.009633 193.009633
thread74 342.009658 194.009658
thread75 345.009688 197.009688
thread76 353.009718 201.009718
thread77 360.009747 206.009747
thread78 364.009778 208.009778
thread79 367.009821 207.009821
thread80 371.009874 209.009874
thread81 376.009903 211.009903
thread82 381.009933 216.009933
thread83 388.009965 223.009965
thread84 395.010015 229.010015
thread85 399.010049 233.010049
thread86 403.010078 233.010078
thread87 409.010105 239.010105
thread88 412.010135 240.010135
thread89 419.010168 245.010168
thread90 423.010199 249.010199
thread91 430.010309 252.010309
thread92 439.010355 258.010355
thread93 440.010384 258.010384
thread94 443.010434 258.010434
thread95 451.010498 263.010498
thread96 456.010540 264.010540
thread97 458.010588 263.010588
thread98 466.010642 271.010642
thread99 469.010698 273.010698
100