thread2 8.000425 4.000425
thread6 10.000992 2.000992
thread1 15.001156 12.001156
thread9 18.000053 2.000053
thread10 21.000033 1.000033
thread3 24.001333 19.001333
thread11 30.001375 7.001375
thread14 33.001433 4.001433
thread18 34.001500 1.001500
thread20 35.001526 2.001526
thread17 37.001590 5.001590
thread23 39.000054 1.000054
thread24 41.000047 1.000047
thread21 42.001745 7.001745
thread25 45.001770 3.001770
thread16 49.001810 18.001810
thread22 53.001841 17.001841
thread28 57.001871 6.001871
thread32 59.000059 1.000059
thread31 60.001963 3.001963
thread33 63.000048 1.000048
thread19 66.002103 33.002103
thread34 68.002158 2.002158
thread36 70.000047 1.000047
thread38 73.000075 2.000075
thread39 77.000084 2.000084
thread15 79.002542 48.002542
thread42 82.002598 4.002598
thread43 86.002657 6.002657
thread46 89.002694 3.002694
thread47 92.002731 5.002731
thread48 95.002760 5.002760
thread44 99.002797 17.002797
thread45 104.002836 22.002836
thread26 110.002987 65.002987
thread35 116.003029 49.003029
thread5 123.003085 117.003085
thread7 130.003119 119.003119
thread13 137.003155 109.003155
thread27 144.003194 96.003194
thread30 151.003223 97.003223
thread40 158.003262 83.003262
thread41 165.003304 88.003304
thread0 173.003340 170.003340
thread4 181.003382 176.003382
thread12 189.003425 163.003425
thread37 197.003455 127.003455
thread49 205.003497 112.003497
thread8 214.003536 201.003536
10