thread2 8.000268 4.000268
thread6 10.001131 2.001131
thread1 15.001269 12.001269
thread9 18.000048 2.000048
thread10 21.000073 1.000073
thread3 24.001475 19.001475
thread11 30.001527 7.001527
thread14 33.001557 4.001557
thread18 34.001588 1.001588
thread20 35.001659 2.001659
thread17 37.001732 5.001732
thread23 39.000070 1.000070
thread24 41.000047 1.000047
thread21 42.001909 7.001909
thread25 45.001972 3.001972
thread16 49.002018 18.002018
thread22 53.002063 17.002063
thread28 57.002104 6.002104
thread32 59.000035 1.000035
thread31 60.002177 3.002177
thread33 63.000045 1.000045
thread19 66.002256 33.002256
thread34 68.002277 2.002277
thread36 70.000045 1.000045
thread38 73.000027 2.000027
thread39 77.000074 2.000074
thread15 79.002469 48.002469
thread42 82.002495 4.002495
thread43 86.002551 6.002551
thread46 89.002581 3.002581
thread47 92.002619 5.002619
thread48 95.002642 5.002642
thread44 99.002681 17.002681
thread53 102.002717 5.002717
thread55 104.002765 3.002765
thread50 108.002802 15.002802
thread58 113.000057 1.000057
thread59 114.000095 2.000095
thread45 115.002935 33.002935
thread60 118.002956 4.002956
thread56 123.002984 18.002984
thread66 128.000045 1.000045
thread65 129.000104 5.000104
thread26 134.003146 89.003146
thread68 137.003193 3.003193
thread70 138.003253 1.003253
thread71 142.000042 3.000042
thread72 147.000050 4.000050
thread74 151.000052 3.000052
thread75 154.000086 6.000086
thread35 157.003480 90.003480
thread78 161.003515 5.003515
thread79 164.003561 4.003561
thread80 168.003595 6.003595
thread85 172.003630 6.003630
thread88 175.003673 3.003673
thread86 179.003703 9.003703
thread93 183.000047 1.000047
thread90 184.003781 10.003781
thread94 188.000053 3.000053
thread81 192.003876 27.003876
thread97 197.000056 2.000056
thread82 199.003956 34.003956
thread99 202.003989 6.003989
thread96 207.004019 15.004019
thread51 213.004059 117.004059
thread54 219.004088 118.004088
thread57 225.004112 116.004112
thread61 231.004142 114.004142
thread87 237.004187 67.004187
thread5 244.004270 238.004270
thread7 251.004318 240.004318
thread13 258.004358 230.004358
thread27 265.004389 217.004389
thread30 272.004419 218.004419
thread40 279.004447 204.004447
thread41 286.004507 209.004507
thread52 293.004536 196.004536
thread77 300.004573 146.004573
thread83 307.004602 142.004602
thread84 314.004642 148.004642
thread89 321.004696 147.004696
thread91 328.004740 150.004740
thread0 336.004805 333.004805
thread4 344.004853 339.004853
thread12 352.004970 326.004970
thread37 360.004998 290.004998
thread49 368.005040 275.005040
thread62 376.005099 255.005099
thread64 384.005158 263.005158
thread67 392.005206 261.005206
thread69 400.005237 266.005237
thread76 408.005338 256.005338
thread95 416.005377 228.005377
thread98 424.005405 229.005405
thread8 433.005446 420.005446
thread29 442.005488 390.005488
thread63 451.005552 330.005552
thread73 460.005596 314.005596
19