thread2 8.000249 4.000249
thread6 10.000843 2.000843
thread1 15.000977 12.000977
thread9 18.000057 2.000057
thread10 21.000071 1.000071
thread3 24.001204 19.001204
thread11 30.001251 7.001251
thread14 33.001297 4.001297
thread18 34.001326 1.001326
thread20 35.001350 2.001350
thread17 37.001387 5.001387
thread23 39.000073 1.000073
thread24 41.000016 1.000016
thread21 42.001522 7.001522
thread25 45.001617 3.001617
thread16 49.001706 18.001706
thread22 53.001752 17.001752
thread28 57.001802 6.001802
thread32 59.000037 1.000037
thread31 60.001905 3.001905
thread33 63.000019 1.000019
thread19 66.001964 33.001964
thread34 68.001990 2.001990
thread36 70.000017 1.000017
thread38 73.000016 2.000016
thread39 77.000023 2.000023
thread15 79.002101 48.002101
thread42 82.002136 4.002136
thread43 86.002167 6.002167
thread46 89.002189 3.002189
thread47 92.002201 5.002201
thread48 95.002213 5.002213
thread44 99.002234 17.002234
thread45 104.002268 22.002268
thread26 110.002309 65.002309
thread35 116.002336 49.002336
thread5 123.002371 117.002371
thread7 130.002416 119.002416
thread13 137.002452 109.002452
thread27 144.002484 96.002484
thread30 151.002512 97.002512
thread40 158.002579 83.002579
thread41 165.002613 88.002613
thread0 173.002649 170.002649
thread4 181.002682 176.002682
thread12 189.002746 163.002746
thread37 197.002799 127.002799
thread49 205.002860 112.002860
thread8 214.002900 201.002900
10