p0 11.000287 10.000287
p1 18.001032 17.001032
p2 21.001072 20.001072
p3 30.001121 26.001121
p4 31.001147 27.001147
p5 51.001206 46.001206
p6 64.001248 57.001248
p7 75.001306 65.001306
p8 81.001352 66.001352
p9 85.001392 69.001392
10