thread0 11.000251 8.000251
thread1 17.001033 14.001033
thread2 21.001128 17.001128
thread3 27.001181 22.001181
thread4 35.001253 30.001253
thread5 42.001303 36.001303
thread6 44.001346 36.001346
thread7 51.001369 40.001369
thread8 60.001423 47.001423
thread9 62.001451 46.001451
thread10 63.001481 43.001481
thread11 69.001539 46.001539
thread12 77.001595 51.001595
thread13 84.001635 56.001635
thread14 87.001678 58.001678
thread15 93.001715 62.001715
thread16 97.001758 66.001758
thread17 99.001788 67.001788
thread18 100.001850 67.001850
thread19 105.001920 72.001920
thread20 106.001949 73.001949
thread21 109.002023 74.002023
thread22 113.002076 77.002076
thread23 114.002090 76.002090
thread24 115.002177 75.002177
thread25 118.002222 76.002222
thread26 124.002264 79.002264
thread27 131.002311 83.002311
thread28 135.002365 84.002365
thread29 144.002426 92.002426
thread30 151.002458 97.002458
thread31 153.002490 96.002490
thread32 154.002510 96.002510
thread33 155.002555 93.002555
thread34 157.002581 91.002581
thread35 163.002632 96.002632
thread36 164.002670 95.002670
thread37 172.002710 102.002710
thread38 174.002752 103.002752
thread39 176.002785 101.002785
thread40 183.002836 108.002836
thread41 190.002856 113.002856
thread42 193.002894 115.002894
thread43 197.002917 117.002917
thread44 201.002950 119.002950
thread45 206.002997 124.002997
thread46 209.003046 123.003046
thread47 212.003077 125.003077
thread48 215.003137 125.003137
thread49 223.003190 130.003190
thread50 227.003231 134.003231
thread51 233.003272 137.003272
thread52 240.003347 143.003347
thread53 243.003378 146.003378
thread54 249.003421 148.003421
thread55 251.003454 150.003454
thread56 256.003505 151.003505
thread57 262.003557 153.003557
thread58 263.003620 151.003620
thread59 264.003688 152.003688
thread60 267.003758 153.003758
thread61 273.003815 156.003815
thread62 281.003858 160.003858
thread63 290.003921 169.003921
thread64 298.003981 177.003981
thread65 302.004032 178.004032
thread66 303.004068 176.004068
thread67 311.004158 180.004158
thread68 314.004187 180.004187
thread69 322.004233 188.004233
thread70 323.004290 186.004290
thread71 326.004366 187.004366
thread72 330.004414 187.004414
thread73 339.004474 193.004474
thread74 342.004520 194.004520
thread75 345.004549 197.004549
thread76 353.004602 201.004602
thread77 360.004625 206.004625
thread78 364.004663 208.004663
thread79 367.004719 207.004719
thread80 371.004778 209.004778
thread81 376.004834 211.004834
thread82 381.004889 216.004889
thread83 388.004943 223.004943
thread84 395.004970 229.004970
thread85 399.005012 233.005012
thread86 403.005093 233.005093
thread87 409.005134 239.005134
thread88 412.005191 240.005191
thread89 419.005253 245.005253
thread90 423.005301 249.005301
thread91 430.005375 252.005375
thread92 439.005433 258.005433
thread93 440.005466 258.005466
thread94 443.005518 258.005518
thread95 451.005572 263.005572
thread96 456.005623 264.005623
thread97 458.005656 263.005656
thread98 466.005701 271.005701
thread99 469.005760 273.005760
100